free
===============================
task 10 ----------------- 2.99s
task 1 ------------------ 2.65s
task 10 result ---------- 2.48s
task 6 ------------------ 2.41s
task 8 ------------------ 2.14s
task 3 ------------------ 2.02s
task 7 ------------------ 1.91s
task 4 ------------------ 1.90s
task 4 result ----------- 1.59s
task 9 ------------------ 1.48s
task 8 result ----------- 1.21s
task 6 result ----------- 1.15s
task 1 result ----------- 1.09s
task 5 ------------------ 0.99s
task 2 ------------------ 0.93s
task 2 result ----------- 0.93s
task 3 result ----------- 0.84s
task 5 result ----------- 0.79s
task 9 result ----------- 0.78s
task 7 result ----------- 0.71s
===============================
ansible.builtin.shell -- 19.38s
ansible.builtin.debug -- 11.54s
~~~~~~~~~~~~~~~~~~~~~~~~~~~~~~~
total ------------------ 30.92s

real    0m31,779s
user    0m26,062s
sys     0m16,760s
