#ControlMaster=auto -o ControlPersist=60s
pipline off
================================================
task 1 ----------------------------------- 3.80s
task 9 ----------------------------------- 3.66s
task 8 ----------------------------------- 3.65s
task 3 ----------------------------------- 3.63s
task 2 ----------------------------------- 3.63s
task 4 ----------------------------------- 3.63s
task 5 ----------------------------------- 3.61s
task 10 ---------------------------------- 3.52s
task 6 ----------------------------------- 2.51s
task 7 ----------------------------------- 1.67s
task 10 result --------------------------- 0.23s
task 8 result ---------------------------- 0.15s
task 4 result ---------------------------- 0.14s
task 6 result ---------------------------- 0.14s
task 2 result ---------------------------- 0.13s
task 9 result ---------------------------- 0.13s
task 3 result ---------------------------- 0.13s
task 5 result ---------------------------- 0.13s
task 7 result ---------------------------- 0.12s
task 1 result ---------------------------- 0.11s
================================================
ansible.builtin.shell ------------------- 33.32s
ansible.builtin.debug -------------------- 1.40s
~~~~~~~~~~~~~~~~~~~~~~~~~~~~~~~~~~~~~~~~~~~~~~~~
total ----------------------------------- 34.72s

real    0m35,380s
user    0m9,607s
sys     0m5,170s


ControlMaster=auto -o ControlPersist=60s
pipline off
================================================
task 1 ----------------------------------- 3.68s
task 10 ---------------------------------- 3.59s
task 7 ----------------------------------- 3.56s
task 8 ----------------------------------- 3.55s
task 2 ----------------------------------- 3.55s
task 5 ----------------------------------- 3.52s
task 6 ----------------------------------- 3.51s
task 9 ----------------------------------- 3.50s
task 3 ----------------------------------- 2.19s
task 4 ----------------------------------- 1.69s
task 10 result --------------------------- 0.19s
task 5 result ---------------------------- 0.14s
task 4 result ---------------------------- 0.12s
task 2 result ---------------------------- 0.12s
task 3 result ---------------------------- 0.12s
task 1 result ---------------------------- 0.11s
task 9 result ---------------------------- 0.11s
task 8 result ---------------------------- 0.11s
task 7 result ---------------------------- 0.11s
task 6 result ---------------------------- 0.10s
================================================
ansible.builtin.shell ------------------- 32.34s
ansible.builtin.debug -------------------- 1.23s
~~~~~~~~~~~~~~~~~~~~~~~~~~~~~~~~~~~~~~~~~~~~~~~~
total ----------------------------------- 33.57s

#ControlMaster=auto -o ControlPersist=60s
pipelining on
================================================
task 6 ----------------------------------- 2.28s
task 4 ----------------------------------- 2.22s
task 9 ----------------------------------- 1.91s
task 1 ----------------------------------- 1.61s
task 8 ----------------------------------- 1.45s
task 2 ----------------------------------- 1.41s
task 3 ----------------------------------- 1.40s
task 7 ----------------------------------- 1.37s
task 10 ---------------------------------- 1.36s
task 5 ----------------------------------- 1.33s
task 10 result --------------------------- 0.21s
task 6 result ---------------------------- 0.14s
task 7 result ---------------------------- 0.13s
task 9 result ---------------------------- 0.13s
task 5 result ---------------------------- 0.13s
task 2 result ---------------------------- 0.12s
task 4 result ---------------------------- 0.12s
task 3 result ---------------------------- 0.12s
task 1 result ---------------------------- 0.11s
task 8 result ---------------------------- 0.11s
================================================
ansible.builtin.shell ------------------- 16.33s
ansible.builtin.debug -------------------- 1.32s
~~~~~~~~~~~~~~~~~~~~~~~~~~~~~~~~~~~~~~~~~~~~~~~~
total ----------------------------------- 17.66s

ControlMaster=auto -o ControlPersist=60s
pipelining on
================================================
task 8 ----------------------------------- 2.10s
task 7 ----------------------------------- 1.48s
task 1 ----------------------------------- 1.47s
task 10 ---------------------------------- 1.43s
task 2 ----------------------------------- 1.41s
task 6 ----------------------------------- 1.39s
task 5 ----------------------------------- 1.39s
task 3 ----------------------------------- 1.38s
task 9 ----------------------------------- 1.37s
task 4 ----------------------------------- 1.37s
task 10 result --------------------------- 0.18s
task 4 result ---------------------------- 0.15s
task 2 result ---------------------------- 0.14s
task 5 result ---------------------------- 0.13s
task 6 result ---------------------------- 0.13s
task 3 result ---------------------------- 0.12s
task 7 result ---------------------------- 0.12s
task 9 result ---------------------------- 0.11s
task 8 result ---------------------------- 0.11s
task 1 result ---------------------------- 0.11s
================================================
ansible.builtin.shell ------------------- 14.79s
ansible.builtin.debug -------------------- 1.29s
~~~~~~~~~~~~~~~~~~~~~~~~~~~~~~~~~~~~~~~~~~~~~~~~
total ----------------------------------- 16.09s

real    0m16,704s
user    0m5,638s
sys     0m3,151s
